…
This flexibility is useful because it won't return an error if the variable is not found.


**Selection with conditions**

Functions work together with `select` to choose cols matching certain conditions: <span class="env-green">`starts_with()`</span>, <span class="env-green">`ends_with()`</span>, `contains()`. These are selection helpers which match variables according to a given pattern.

```r
> iris %>% select(starts_with("Sepal"))
#> # A tibble: 150 x 2
#>   Sepal.Length Sepal.Width
#>          <dbl>       <dbl>
#> 1          5.1         3.5
#> 2          4.9         3  
#> 3          4.7         3.2
#> 4          4.6         3.1
#> # i 146 more rows

> iris %>% select(ends_with("Width"))
#> # A tibble: 150 x 2
#>   Sepal.Width Petal.Width
#>         <dbl>       <dbl>
#> 1         3.5         0.2
#> 2         3           0.2
#> 3         3.2         0.2
#> 4         3.1         0.2
#> # i 146 more rows
```
…
