…
Augment data with **fitted predictions and residuals**

`augment(lmfit)`     print <span class="env-green">**fitted values and residuals**</span> for each of the original points in the regression. 

```r
> augment(reg_ml)
# A tibble: 251 × 9
   .rownames     eRi  rmrf .fitted .resid    .hat .sigma   .cooksd .std.resid
   <chr>       <dbl> <dbl>   <dbl>  <dbl>   <dbl>  <dbl>     <dbl>      <dbl>
 1 1          0.739   0.59  0.279   0.460 0.00541   1.23 0.000381       0.374
 2 2          0.785   0.61  0.285   0.500 0.00553   1.23 0.000459       0.407
 3 3          1.22    0.32  0.204   1.02  0.00427   1.23 0.00147        0.828
 4 4          0.0542 -0.81 -0.113   0.167 0.00883   1.24 0.0000829      0.136
 5 5          0.467  -0.59 -0.0515  0.519 0.00677   1.23 0.000608       0.422
 6 6          1.03    1.14  0.434   0.592 0.0104    1.23 0.00122        0.483
 7 7          0.361   0.09  0.139   0.222 0.00398   1.24 0.0000652      0.181
 8 8         -1.31   -1.47 -0.298  -1.01  0.0184    1.23 0.00646       -0.829
 9 9         -1.02   -0.92 -0.144  -0.873 0.0101    1.23 0.00258       -0.712
10 10        -2.50   -1.32 -0.256  -2.24  0.0158    1.23 0.0270        -1.83 
# ℹ 241 more rows
# ℹ Use `print(n = ...)` to see more rows
```
…
