…
`tq_get(x, get, from, to)` 	get trading data, such as OHLC, and return as `tibble`.

- `x` 	 A single character string, a character vector or tibble representing a single (or multiple) stock symbol, metal symbol, currency combination, FRED code, etc.
- `get`     A character string representing the type of data to get for `x`.  Possible options:
  - `"stock.prices"`: Get the open, high, low, close, volume and adjusted stock prices for a stock symbol from Yahoo Finance (https://finance.yahoo.com/). Wrapper for `quantmod::getSymbols()`.
  - `"dividends"`: Get the dividends for a stock symbol from Yahoo Finance (https://finance.yahoo.com/). Wrapper for `quantmod::getDividends()`.
  - `"splits"`: Get the split ratio for a stock symbol from Yahoo Finance (https://finance.yahoo.com/). Wrapper for `quantmod::getSplits()`.
  - `tq_get_options()` returns a list of valid `get` options you can choose from.

- Use `from` and `to` to specify the period of interest.

```r
tq_get("AAPL",get = "stock.prices")
# A tibble: 2,687 × 8
   symbol date        open  high   low close    volume adjusted
   <chr>  <date>     <dbl> <dbl> <dbl> <dbl>     <dbl>    <dbl>
 1 AAPL   2014-01-02  19.8  19.9  19.7  19.8 234684800     17.3
 2 AAPL   2014-01-03  19.7  19.8  19.3  19.3 392467600     16.9
 3 AAPL   2014-01-06  19.2  19.5  19.1  19.4 412610800     17.0
 4 AAPL   2014-01-07  19.4  19.5  19.2  19.3 317209200     16.8
 5 AAPL   2014-01-08  19.2  19.5  19.2  19.4 258529600     17.0
 6 AAPL   2014-01-09  19.5  19.5  19.1  19.2 279148800     16.7
 7 AAPL   2014-01-10  19.3  19.3  19.0  19.0 304976000     16.6
 8 AAPL   2014-01-13  18.9  19.4  18.9  19.1 378492800     16.7
 9 AAPL   2014-01-14  19.2  19.5  19.2  19.5 332561600     17.0
10 AAPL   2014-01-15  19.8  20.0  19.7  19.9 391638800     17.4
# ℹ 2,677 more rows
# ℹ Use `print(n = ...)` to see more rows
…
`tq_index(x)` 	returns the stock symbols and various attributes for every stock in an index or exchange. Eighteen indexes and three exchanges are available.

`tq_index_options()` returns a list of stock indexes you can choose from.

`tq_exchange(x)` 	Get all stocks in a stock exchange in `tibble` format.

`tq_exchange_options()` returns a list of stock exchanges you can choose from. The options are `AMEX`, `NASDAQ` and `NYSE`.

```r
tq_index("SP500")
# A tibble: 504 × 8                                                                             
   symbol company                     identifier sedol   weight sector shares_held local_currency
   <chr>  <chr>                       <chr>      <chr>    <dbl> <chr>        <dbl> <chr>         
 1 AAPL   APPLE INC                   037833100  2046251 0.0686 -        171416583 USD           
 2 MSFT   MICROSOFT CORP              594918104  2588173 0.0654 -         88389092 USD           
 3 NVDA   NVIDIA CORP                 67066G104  2379504 0.0563 -        292528720 USD           
 4 AMZN   AMAZON.COM INC              023135106  2000019 0.0342 -        108870351 USD           
 5 META   META PLATFORMS INC CLASS A  30303M102  B7TL820 0.0242 -         26074570 USD           
 6 GOOGL  ALPHABET INC CL A           02079K305  BYVY8G0 0.0198 -         69889995 USD           
 7 BRK-B  BERKSHIRE HATHAWAY INC CL B 084670702  2073390 0.0187 -         21540450 USD           
 8 GOOG   ALPHABET INC CL C           02079K107  BYY88Y7 0.0166 -         58143623 USD           
 9 LLY    ELI LILLY + CO              532457108  2516152 0.0163 -          9488573 USD           
10 AVGO   BROADCOM INC                11135F101  BDZ78H9 0.0145 -         51827325 USD           
# ℹ 494 more rows
# ℹ Use `print(n = ...)` to see more rows
…
