6.1 Basic operations on tibbles | R Notes
…
any_of(vars) doesnt check for missing variables. It is especially useful with negative selections, when you would like to make sure a variable is removed.

# select columns may or may not exist
the_country %>% select(any_of(c("isoa2", "countryCode")) )
# remove columns may or may not exist
the_country %>% select(-any_of(c("isoa2", "countryCode")) )

This flexibility is useful because it wont return an error if the variable is not found.

Selection with conditions

Functions work together with select to choose cols matching certain conditions: starts_with(), ends_with(), contains(). These are selection helpers which match variables according to a given pattern.

> iris %>% select(starts_with("Sepal"))
#> # A tibble: 150 x 2
#>   Sepal.Length Sepal.Width
#>          <dbl>       <dbl>
#> 1          5.1         3.5
#> 2          4.9         3  
#> 3          4.7         3.2
#> 4          4.6         3.1
#> # i 146 more rows

> iris %>% select(ends_with("Width"))
#> # A tibble: 150 x 2
#>   Sepal.Width Petal.Width
#>         <dbl>       <dbl>
#> 1         3.5         0.2
#> 2         3           0.2
#> 3         3.2         0.2
#> 4         3.1         0.2
#> # i 146 more rows
…
